Homework 6
…
── Attaching core tidyverse packages ──────────────────────── tidyverse 2.0.0 ──
✔ dplyr     1.1.4     ✔ readr     2.1.5
✔ forcats   1.0.0     ✔ stringr   1.5.2
✔ ggplot2   4.0.0     ✔ tibble    3.3.0
✔ lubridate 1.9.4     ✔ tidyr     1.3.1
── Conflicts ────────────────────────────────────────── tidyverse_conflicts() ──
✖ dplyr::filter() masks stats::filter()
✖ dplyr::lag()    masks stats::lag()
ℹ Use the conflicted package (<http://conflicted.r-lib.org/>) to force all conflicts to become errors

my_batting <- Batting[, c("playerID", "teamID", "G", "AB", "R", "H", "X2B", "X3B", "HR")] |>
  as_tibble()
my_batting

# A tibble: 115,450 × 9
   playerID  teamID     G    AB     R     H   X2B   X3B    HR
   <chr>     <fct>  <int> <int> <int> <int> <int> <int> <int>
 1 aardsda01 SFN       11     0     0     0     0     0     0
 2 aardsda01 CHN       45     2     0     0     0     0     0
 3 aardsda01 CHA       25     0     0     0     0     0     0
 4 aardsda01 BOS       47     1     0     0     0     0     0
 5 aardsda01 SEA       73     0     0     0     0     0     0
 6 aardsda01 SEA       53     0     0     0     0     0     0
 7 aardsda01 NYA        1     0     0     0     0     0     0
 8 aardsda01 NYN       43     0     0     0     0     0     0
 9 aardsda01 ATL       33     1     0     0     0     0     0
10 aaronha01 ML1      122   468    58   131    27     6    13
# ℹ 115,440 more rows
…
